…
            ACC   PFC
  ASD     19984 32019
  Control 22409 30147
'select()' returned 1:many mapping between keys and columns
[1] 36690
# A tibble: 31 × 2
# Groups:   ENSEMBL [10]
   ENSEMBL         SYMBOL        
   <chr>           <chr>         
 1 ENSG00000143429 LSP1P5        
 2 ENSG00000143429 LSP1P4        
 3 ENSG00000143429 LOC107985911  
 4 ENSG00000229140 CCDC26        
 5 ENSG00000229140 LINC00977     
 6 ENSG00000229140 LINC00976     
 7 ENSG00000187954 ZFTRAF1       
 8 ENSG00000187954 TMEM276       
 9 ENSG00000187954 LOC84773-CYHR1
10 ENSG00000258537 FRMD6-AS1     
# ℹ 21 more rows
…
